Basic Class and Methods for Case Line Lists • linelist
…
the gender of the patient (tag: gender)

We create a linelist with the above information:

x <- measles_hagelloch_1861 %>%
  tibble() %>%
  make_linelist(date_onset = "date_of_prodrome",
                date_death = "date_of_death",
                age = "age",
                gender = "gender")
x
#> 
#> // linelist object
#> # A tibble: 188 × 12
#>    case_ID infector date_of_prodrome date_of_rash date_of_death   age gender
#>      <int>    <int> <date>           <date>       <date>        <dbl> <fct> 
#>  1       1       45 1861-11-21       1861-11-25   NA                7 f     
#>  2       2       45 1861-11-23       1861-11-27   NA                6 f     
#>  3       3      172 1861-11-28       1861-12-02   NA                4 f     
#>  4       4      180 1861-11-27       1861-11-28   NA               13 m     
#>  5       5       45 1861-11-22       1861-11-27   NA                8 f     
#>  6       6      180 1861-11-26       1861-11-29   NA               12 m     
#>  7       7       42 1861-11-24       1861-11-28   NA                6 m     
#>  8       8       45 1861-11-21       1861-11-26   NA               10 m     
#>  9       9      182 1861-11-26       1861-11-30   NA               13 m     
#> 10      10       45 1861-11-21       1861-11-25   NA                7 f     
#> # … with 178 more rows, and 5 more variables: family_ID <int>, class <fct>,
#> #   complications <fct>, x_loc <dbl>, y_loc <dbl>
…
Let us now assume we also want to record the outcome: it is currently missing, but can be built from dates of deaths (missing date = survived). This can be done by using mutate on x to create the new variable (remember x is not only a linelist, but also a regular tibble and this compatible with dplyr verbs), and setting up a new tag using set_tags:

x <- x %>%
  mutate(inferred_outcome = if_else(is.na(date_of_death), "survided", "died")) %>%
  set_tags(outcome = "inferred_outcome")

Now that key variables have been tagged in x, we can used these pre-defined fields in downstream analyses, without having to worry about variable names and types. We could access tagged variables using any of the following means:

# select tagged variables only
x %>%
  select_tags(date_onset, date_death)
#> # A tibble: 188 × 2
#>    date_onset date_death
#>    <date>     <date>    
#>  1 1861-11-21 NA        
#>  2 1861-11-23 NA        
#>  3 1861-11-28 NA        
#>  4 1861-11-27 NA        
#>  5 1861-11-22 NA        
#>  6 1861-11-26 NA        
#>  7 1861-11-24 NA        
#>  8 1861-11-21 NA        
#>  9 1861-11-26 NA        
#> 10 1861-11-21 NA        
#> # … with 178 more rows

# select tagged variables only with renaming on the fly
x %>%
  select_tags(onset = date_onset, date_death)
#> # A tibble: 188 × 2
#>    onset      date_death
#>    <date>     <date>    
#>  1 1861-11-21 NA        
#>  2 1861-11-23 NA        
#>  3 1861-11-28 NA        
#>  4 1861-11-27 NA        
#>  5 1861-11-22 NA        
#>  6 1861-11-26 NA        
#>  7 1861-11-24 NA        
#>  8 1861-11-21 NA        
#>  9 1861-11-26 NA        
#> 10 1861-11-21 NA        
#> # … with 178 more rows

# get all tagged variables in a data.frame
x %>%
  tags_df()
#> # A tibble: 188 × 5
#>    date_onset date_death gender   age outcome 
#>    <date>     <date>     <fct>  <dbl> <chr>   
#>  1 1861-11-21 NA         f          7 survided
#>  2 1861-11-23 NA         f          6 survided
#>  3 1861-11-28 NA         f          4 survided
#>  4 1861-11-27 NA         m         13 survided
#>  5 1861-11-22 NA         f          8 survided
#>  6 1861-11-26 NA         m         12 survided
#>  7 1861-11-24 NA         m          6 survided
#>  8 1861-11-21 NA         m         10 survided
#>  9 1861-11-26 NA         m         13 survided
#> 10 1861-11-21 NA         f          7 survided
#> # … with 178 more rows
…
